sarina project1
…
new %>% summarize_all(n_distinct)

##   state abbrev income noncitizen whitep nonewhite hatecrime av.hatecrime
## 1    45     45     45         12     12        32        45           45
##   division region
## 1        9      4

new %>% group_by(state, region) %>% summarize_all(n_distinct)

## # A tibble: 45 x 10
## # Groups:   state [45]
##    state region abbrev income noncitizen whitep nonewhite hatecrime av.hatecrime
##    <fct> <fct>   <int>  <int>      <int>  <int>     <int>     <int>        <int>
##  1 Alab… South       1      1          1      1         1         1            1
##  2 Alas… West        1      1          1      1         1         1            1
##  3 Ariz… West        1      1          1      1         1         1            1
##  4 Arka… South       1      1          1      1         1         1            1
##  5 Cali… West        1      1          1      1         1         1            1
##  6 Colo… West        1      1          1      1         1         1            1
##  7 Conn… North…      1      1          1      1         1         1            1
##  8 Dela… South       1      1          1      1         1         1            1
##  9 Dist… South       1      1          1      1         1         1            1
## 10 Flor… South       1      1          1      1         1         1            1
## # … with 35 more rows, and 1 more variable: division <int>
…
new %>% group_by(state, region) 

## # A tibble: 45 x 10
## # Groups:   state, region [45]
##    state abbrev income noncitizen whitep nonewhite hatecrime av.hatecrime
##    <fct> <fct>   <int>      <dbl>  <dbl>     <dbl>     <dbl>        <dbl>
##  1 Alab… AL      42278       0.02   0.12      0.35    0.126         1.81 
##  2 Alas… AK      67629       0.04   0.06      0.42    0.144         1.66 
##  3 Ariz… AZ      49254       0.1    0.09      0.49    0.225         3.41 
##  4 Arka… AR      44922       0.04   0.12      0.26    0.0691        0.869
##  5 Cali… CA      60487       0.13   0.09      0.61    0.256         2.40 
##  6 Colo… CO      60940       0.06   0.07      0.31    0.391         2.80 
##  7 Conn… CT      70161       0.06   0.06      0.3     0.335         3.77 
##  8 Dela… DE      57522       0.05   0.08      0.37    0.323         1.47 
##  9 Flor… FL      46140       0.09   0.11      0.46    0.188         0.698
## 10 Geor… GA      49555       0.08   0.09      0.48    0.120         0.412
## # … with 35 more rows, and 2 more variables: division <fct>, region <fct>
…
